{
    "KPlugin": {
        "Authors": [
            {
                "Email": "mgraesslin@kde.org",
                "Name": "Martin Gräßlin",
                "Name[ar]": "Martin Gräßlin",
                "Name[az]": "Martin Gräßlin",
                "Name[bg]": "Martin Gräßlin",
                "Name[ca@valencia]": "Martin Gräßlin",
                "Name[ca]": "Martin Gräßlin",
                "Name[de]": "Martin Gräßlin",
                "Name[en_GB]": "Martin Gräßlin",
                "Name[es]": "Martin Gräßlin",
                "Name[eu]": "Martin Gräßlin",
                "Name[fi]": "Martin Gräßlin",
                "Name[fr]": "Martin Gräßlin",
                "Name[ia]": "Martin Gräßlin",
                "Name[id]": "Martin Gräßlin",
                "Name[is]": "Martin Gräßlin",
                "Name[it]": "Martin Gräßlin",
                "Name[ja]": "Martin Gräßlin",
                "Name[ka]": "მარტინ გრესსლინი",
                "Name[ko]": "Martin Gräßlin",
                "Name[nl]": "Martin Gräßlin",
                "Name[nn]": "Martin Gräßlin",
                "Name[pl]": "Martin Gräßlin",
                "Name[pt]": "Martin Gräßlin",
                "Name[pt_BR]": "Martin Gräßlin",
                "Name[ro]": "Martin Gräßlin",
                "Name[ru]": "Martin Gräßlin",
                "Name[sk]": "Martin Gräßlin",
                "Name[sl]": "Martin Gräßlin",
                "Name[sv]": "Martin Gräßlin",
                "Name[tr]": "Martin Gräßlin",
                "Name[uk]": "Martin Gräßlin",
                "Name[vi]": "Martin Gräßlin",
                "Name[x-test]": "xxMartin Gräßlinxx",
                "Name[zh_CN]": "Martin Gräßlin",
                "Name[zh_TW]": "Martin Gräßlin"
            }
        ],
        "Description": "A desktop switcher layout with previews of the desktops",
        "Description[ar]": "تخطيط محوّل سطح المكتب مع معاينات لسطح المكتب",
        "Description[az]": "İş Masalarının miniatürləri ilə İş Masası dəyişdiricisi",
        "Description[bg]": "Програма за превключване на работни плотове с предварителен преглед",
        "Description[ca@valencia]": "Una disposició del commutador d'escriptori amb vistes prèvies dels escriptoris",
        "Description[ca]": "Una disposició del commutador d'escriptori amb vistes prèvies dels escriptoris",
        "Description[de]": "Ein Arbeitsflächenwechsler mit Vorschauen der Arbeitsflächen",
        "Description[en_GB]": "A desktop switcher layout with previews of the desktops",
        "Description[es]": "Un esquema de selección de escritorios con vistas previas de los escritorios",
        "Description[eu]": "Mahaigainen aurreikuspegiak dituen mahaigain-trukatzaile antolamendu bat",
        "Description[fi]": "Työpöytävaihtoasettelu, jossa työpöytien esikatselu",
        "Description[fr]": "Une disposition de commutateur de bureaux avec des aperçus des bureaux",
        "Description[ia]": "Un disposition de commutator de scriptorio con vistas preliminar de scriptorios",
        "Description[it]": "Un selettore dei desktop con le anteprime dei desktop",
        "Description[ja]": "デスクトップのプレビューを表示するデスクトップスイッチャー",
        "Description[ko]": "바탕 화면 미리 보기를 제공하는 바탕 화면 전환기 레이아웃",
        "Description[nl]": "Een indeling van bureaubladwisselaar met voorbeelden op de bureaubladen",
        "Description[nn]": "Skrivebordsbytar med førehandvising av skriveborda",
        "Description[pl]": "Przełącznik pulpitów z podglądem",
        "Description[pt]": "Uma disposição de mudança de ecrãs com antevisões dos mesmos",
        "Description[pt_BR]": "Um layout do seletor de área de trabalho com visualizações",
        "Description[ro]": "Aranjament pentru comutator de birouri cu previzualizări ale birourilor",
        "Description[ru]": "Переключатель с миниатюрами рабочих столов",
        "Description[sk]": "Rozloženie prepínača plôch s náhľadmi týchto plôch",
        "Description[sl]": "Razporeditev preklopnika namizja s predogledi namizij",
        "Description[sv]": "En layout för skrivbordsbyte med förhandsgranskningar av skrivborden",
        "Description[tr]": "Masaüstü önizlemelerini gösteren bir masaüstü yerleşimi değiştiricisi",
        "Description[uk]": "Компонування перемикача стільниць з ескізами стільниць",
        "Description[vi]": "Bố cục trình chuyển bàn làm việc với phần xem thử các bàn làm việc",
        "Description[x-test]": "xxA desktop switcher layout with previews of the desktopsxx",
        "Description[zh_CN]": "带桌面预览的桌面切换器布局",
        "Icon": "preferences-system-desktop-switcher-previews",
        "Id": "previews",
        "License": "GPL",
        "Name": "Previews",
        "Name[ar]": "المعاينات",
        "Name[az]": "Miniatür",
        "Name[bg]": "Предварителен преглед",
        "Name[ca@valencia]": "Vistes prèvies",
        "Name[ca]": "Vistes prèvies",
        "Name[cs]": "Náhledy",
        "Name[de]": "Vorschauen",
        "Name[en_GB]": "Previews",
        "Name[es]": "Vistas previas",
        "Name[eu]": "Aurreikuspegiak",
        "Name[fi]": "Esikatselut",
        "Name[fr]": "Aperçus",
        "Name[ia]": "Vistas preliminar",
        "Name[is]": "Forskoðanir",
        "Name[it]": "Anteprime",
        "Name[ja]": "プレビュー",
        "Name[ka]": "გადახედვები",
        "Name[ko]": "미리 보기",
        "Name[nl]": "Voorvertoningen",
        "Name[nn]": "Førehandsvisingar",
        "Name[pl]": "Podglądy",
        "Name[pt]": "Antevisões",
        "Name[pt_BR]": "Visualizações",
        "Name[ro]": "Previzualizări",
        "Name[ru]": "Миниатюры",
        "Name[sk]": "Náhľady",
        "Name[sl]": "Predogledi",
        "Name[sv]": "Förhandsgranskningar",
        "Name[tr]": "Önizlemeler",
        "Name[uk]": "Ескізи",
        "Name[vi]": "Xem thử",
        "Name[x-test]": "xxPreviewsxx",
        "Name[zh_CN]": "预览",
        "ServiceTypes": [
            "KWin/DesktopSwitcher"
        ],
        "Version": "1.0"
    },
    "X-Plasma-API": "declarativeappletscript",
    "X-Plasma-MainScript": "ui/main.qml"
}
