{
    "KPlugin": {
        "Authors": [
            {
                "Email": "shaun.reich@kdemail.net",
                "Name": "Shaun Reich",
                "Name[ar]": "Shaun Reich",
                "Name[az]": "Shaun Reich",
                "Name[bg]": "Shaun Reich",
                "Name[ca@valencia]": "Shaun Reich",
                "Name[ca]": "Shaun Reich",
                "Name[cs]": "Shaun Reich",
                "Name[de]": "Shaun Reich",
                "Name[en_GB]": "Shaun Reich",
                "Name[es]": "Shaun Reich",
                "Name[eu]": "Shaun Reich",
                "Name[fi]": "Shaun Reich",
                "Name[fr]": "Shaun Reich",
                "Name[ia]": "Shaun Reich",
                "Name[id]": "Shaun Reich",
                "Name[is]": "Shaun Reich",
                "Name[it]": "Shaun Reich",
                "Name[ja]": "Shaun Reich",
                "Name[ka]": "Shaun Reich",
                "Name[ko]": "Shaun Reich",
                "Name[lt]": "Shaun Reich",
                "Name[nl]": "Shaun Reich",
                "Name[nn]": "Shaun Reich",
                "Name[pl]": "Shaun Reich",
                "Name[pt]": "Shaun Reich",
                "Name[pt_BR]": "Shaun Reich",
                "Name[ro]": "Shaun Reich",
                "Name[ru]": "Shaun Reich",
                "Name[sk]": "Shaun Reich",
                "Name[sl]": "Shaun Reich",
                "Name[sv]": "Shaun Reich",
                "Name[tr]": "Shaun Reich",
                "Name[uk]": "Shaun Reich",
                "Name[vi]": "Shaun Reich",
                "Name[x-test]": "xxShaun Reichxx",
                "Name[zh_CN]": "Shaun Reich",
                "Name[zh_TW]": "Shaun Reich"
            }
        ],
        "Category": "Utilities",
        "Description": "List and launch Konsole profiles",
        "Description[ar]": "تعرض و تطلق تشكيلات كونسول",
        "Description[az]": "Konsol profillərini sıralamaq və başlatmaq",
        "Description[bg]": "Показване и избиране на профили на Konsole",
        "Description[ca@valencia]": "Llista i inicia els perfils de Konsole",
        "Description[ca]": "Llista i llança els perfils del Konsole",
        "Description[cs]": "Seznam a spouštění profilů Konsole",
        "Description[de]": "Konsole-Profile anzeigen und starten",
        "Description[en_GB]": "List and launch Konsole profiles",
        "Description[es]": "Listar y lanzar perfiles de Konsole",
        "Description[eu]": "«Konsole»ren profilak zerrendatu eta jaurtitzea",
        "Description[fi]": "Luettele ja käynnistä Konsole-profiileja",
        "Description[fr]": "Lister et lancer des profils de Konsole",
        "Description[ia]": "Lista e lancea profilos de Konsole",
        "Description[id]": "Cantumkan dan luncurkan profil Konsole",
        "Description[is]": "Telur upp og ræsir Konsole-snið",
        "Description[it]": "Elenca ed esegue i profili di Konsole",
        "Description[ja]": "Konsole のプロファイルを起動します",
        "Description[ko]": "Konsole 프로필을 보고 실행하기",
        "Description[lt]": "Išvardyti ir paleisti Konsole profilius",
        "Description[nl]": "Toon en start Konsole-profielen",
        "Description[nn]": "Vis og start Konsoll-profilar",
        "Description[pl]": "Wypisuje i uruchamia profile Konsoli",
        "Description[pt]": "Listar e invocar os perfis do Konsole",
        "Description[pt_BR]": "Lista e carrega os perfis do Konsole",
        "Description[ro]": "Enumeră și lansează profiluri de Konsolă",
        "Description[ru]": "Запуск Konsole для разных задач",
        "Description[sk]": "Zoznam a spustenie profilov Konsole",
        "Description[sl]": "Zlistaj in zaženi profile Konzole",
        "Description[sv]": "Lista och starta terminalprofiler",
        "Description[tr]": "Konsole profillerini listele ve çalıştır",
        "Description[uk]": "Перегляньте і запустіть профілі Konsole",
        "Description[vi]": "Liệt kê và khởi chạy các hồ sơ Konsole",
        "Description[x-test]": "xxList and launch Konsole profilesxx",
        "Description[zh_CN]": "列出并启动 Konsole 配置方案",
        "Description[zh_TW]": "列出並啟動 Konsole 設定檔",
        "EnabledByDefault": true,
        "FormFactors": [
            "desktop"
        ],
        "Icon": "utilities-terminal",
        "Id": "org.kde.plasma.konsoleprofiles",
        "License": "GPL-2.0+",
        "Name": "Konsole Profiles",
        "Name[ar]": "تشكيلات كونسول",
        "Name[az]": "Konsol profilləri",
        "Name[bg]": "Профили на Konsole",
        "Name[ca@valencia]": "Perfils de Konsole",
        "Name[ca]": "Perfils del Konsole",
        "Name[cs]": "Profily Konsole",
        "Name[de]": "Konsole-Profile",
        "Name[en_GB]": "Konsole Profiles",
        "Name[es]": "Perfiles de Konsole",
        "Name[eu]": "«Konsole»ren profilak",
        "Name[fi]": "Konsole-profiilit",
        "Name[fr]": "Profils de Konsole",
        "Name[ia]": "Profilos de Konsole",
        "Name[id]": "Profil Konsole",
        "Name[is]": "Konsole snið",
        "Name[it]": "Profili di Konsole",
        "Name[ja]": "Konsole プロファイル",
        "Name[ka]": "Konsole -ის პროფილები",
        "Name[ko]": "Konsole 프로필",
        "Name[lt]": "Konsole profiliai",
        "Name[nl]": "Konsole-profielen",
        "Name[nn]": "Konsoll-profilar",
        "Name[pl]": "Profile Konsoli",
        "Name[pt]": "Perfis do Konsole",
        "Name[pt_BR]": "Perfis do Konsole",
        "Name[ro]": "Profiluri Konsolă",
        "Name[ru]": "Konsole: профили",
        "Name[sk]": "Profily Konsole",
        "Name[sl]": "Profili Konzole",
        "Name[sv]": "Terminalprofiler",
        "Name[tr]": "Konsol Profilleri",
        "Name[uk]": "Профілі Konsole",
        "Name[vi]": "Hồ sơ Konsole",
        "Name[x-test]": "xxKonsole Profilesxx",
        "Name[zh_CN]": "Konsole 配置方案",
        "Name[zh_TW]": "Konsole 設定檔",
        "ServiceTypes": [
            "Plasma/Applet"
        ],
        "Version": "0.1",
        "Website": "https://userbase.kde.org/Plasma"
    },
    "X-Plasma-API": "declarativeappletscript",
    "X-Plasma-MainScript": "ui/konsoleprofiles.qml"
}
