{
    "KPlugin": {
        "Authors": [
            {
                "Email": "bettio@kde.org, lukas.krop@gmail.com",
                "Name": "Davide Bettio, Lukas Kropatschek",
                "Name[ar]": "Davide Bettio, Lukas Kropatschek",
                "Name[az]": "Davide Bettio, Lukas Kropatschek",
                "Name[bg]": "Davide Bettio, Lukas Kropatschek",
                "Name[ca@valencia]": "Davide Bettio, Lukas Kropatschek",
                "Name[ca]": "Davide Bettio, Lukas Kropatschek",
                "Name[cs]": "Davide Bettio, Lukas Kropatschek",
                "Name[de]": "Davide Bettio, Lukas Kropatschek",
                "Name[en_GB]": "Davide Bettio, Lukas Kropatschek",
                "Name[es]": "Davide Bettio, Lukas Kropatschek",
                "Name[eu]": "Davide Bettio, Lukas Kropatschek",
                "Name[fi]": "Davide Bettio, Lukas Kropatschek",
                "Name[fr]": "Davide Bettio, Lukas Kropatschek",
                "Name[ia]": "Davide Bettio, Lukas Kropatschek",
                "Name[id]": "Davide Bettio, Lukas Kropatschek",
                "Name[is]": "Davide Bettio, Lukas Kropatschek",
                "Name[it]": "Davide Bettio, Lukas Kropatschek",
                "Name[ja]": "Davide Bettio, Lukas Kropatschek",
                "Name[ka]": "Davide Bettio, Lukas Kropatschek",
                "Name[ko]": "Davide Bettio, Lukas Kropatschek",
                "Name[lt]": "Davide Bettio, Lukas Kropatschek",
                "Name[nl]": "Davide Bettio, Lukas Kropatschek",
                "Name[nn]": "Davide Bettio, Lukas Kropatschek",
                "Name[pl]": "Davide Bettio, Lukas Kropatschek",
                "Name[pt]": "Davide Bettio, Lukas Kropatschek",
                "Name[pt_BR]": "Davide Bettio, Lukas Kropatschek",
                "Name[ro]": "Davide Bettio, Lukas Kropatschek",
                "Name[ru]": "Davide Bettio, Lukas Kropatschek",
                "Name[sk]": "Davide Bettio, Lukas Kropatschek",
                "Name[sl]": "Davide Bettio, Lukas Kropatschek",
                "Name[sv]": "Davide Bettio, Lukas Kropatschek",
                "Name[tr]": "Davide Bettio, Lukas Kropatschek",
                "Name[uk]": "Davide Bettio, Lukas Kropatschek",
                "Name[vi]": "Davide Bettio, Lukas Kropatschek",
                "Name[x-test]": "xxDavide Bettio, Lukas Kropatschekxx",
                "Name[zh_CN]": "Davide Bettio, Lukas Kropatschek",
                "Name[zh_TW]": "Davide Bettio, Lukas Kropatschek"
            }
        ],
        "Category": "Utilities",
        "Description": "Desktop sticky note",
        "Description[ar]": "ملاحظة سطح مكتب لاصقة",
        "Description[az]": "İş masası qeyd vərəqi",
        "Description[bg]": "Лепкава бележка на работния плот",
        "Description[ca@valencia]": "Nota adhesiva per a l'escriptori",
        "Description[ca]": "Nota adhesiva per a l'escriptori",
        "Description[cs]": "Lepicí poznámka na plochu",
        "Description[de]": "Haftnotiz für die Arbeitsfläche",
        "Description[en_GB]": "Desktop sticky note",
        "Description[es]": "Nota adhesiva del escritorio",
        "Description[eu]": "Mahaigaineko ohar itsaskorra",
        "Description[fi]": "Työpöydän tarralappu",
        "Description[fr]": "Note auto-collante de bureau",
        "Description[ia]": "Nota collose de scriptorio",
        "Description[id]": "Catatan lekat desktop",
        "Description[is]": "Minnismiðar á skjáborði",
        "Description[it]": "Note adesive del desktop",
        "Description[ja]": "デスクトップの付箋です",
        "Description[ko]": "바탕 화면 메모",
        "Description[lt]": "Lipnus darbalaukio lapelis",
        "Description[nl]": "Plaknotitie op het bureaublad",
        "Description[nn]": "Notatlapp på skrivebordet",
        "Description[pl]": "Żółte karteczki na pulpicie",
        "Description[pt]": "Nota autocolante do ecrã",
        "Description[pt_BR]": "Nota adesiva na área de trabalho",
        "Description[ro]": "Notiță de birou lipicioasă",
        "Description[ru]": "Клейкая заметка на рабочем столе",
        "Description[sk]": "Lepiaca poznámka na plochu",
        "Description[sl]": "Namizni lepljivi listek",
        "Description[sv]": "Klisterlapp med meddelande för skrivbordet",
        "Description[tr]": "Masaüstü yapışkan notu",
        "Description[uk]": "Стільничні липкі нотатки",
        "Description[vi]": "GIấy nhớ trên bàn làm việc",
        "Description[x-test]": "xxDesktop sticky notexx",
        "Description[zh_CN]": "桌面便利贴",
        "EnabledByDefault": true,
        "Icon": "knotes",
        "Id": "org.kde.plasma.notes",
        "License": "GPL-2.0+",
        "Name": "Sticky Note",
        "Name[ar]": "ملاحظة لاصقة",
        "Name[az]": "Qeyd vərəqi",
        "Name[bg]": "Лепкава бележка",
        "Name[ca@valencia]": "Nota adhesiva",
        "Name[ca]": "Nota adhesiva",
        "Name[cs]": "Lepicí poznámka",
        "Name[de]": "Haftnotiz",
        "Name[en_GB]": "Sticky Note",
        "Name[es]": "Notas adhesivas",
        "Name[eu]": "Ohar itsaskorra",
        "Name[fi]": "Tarralappu",
        "Name[fr]": "Note auto-collante",
        "Name[ia]": "Nota collose",
        "Name[id]": "Sticky Note",
        "Name[is]": "Límmiði",
        "Name[it]": "Nota adesiva",
        "Name[ja]": "付箋",
        "Name[ko]": "메모지",
        "Name[lt]": "Lipnus lapelis",
        "Name[nl]": "Plaknotitie",
        "Name[nn]": "Notat­lapp",
        "Name[pl]": "Żółte karteczki",
        "Name[pt]": "Nota Autocolante",
        "Name[pt_BR]": "Nota adesiva",
        "Name[ro]": "Notă lipicioasă",
        "Name[ru]": "Клейкая заметка",
        "Name[sk]": "Lepiaca poznámka",
        "Name[sl]": "Lepljiv listek",
        "Name[sv]": "Klisterlapp",
        "Name[tr]": "Yapışkan Not",
        "Name[uk]": "Липка нотатка",
        "Name[vi]": "Giấy nhớ",
        "Name[x-test]": "xxSticky Notexx",
        "Name[zh_CN]": "便利贴",
        "Name[zh_TW]": "便條貼",
        "ServiceTypes": [
            "Plasma/Applet"
        ],
        "Version": "2.0",
        "Website": "https://kde.org/plasma-desktop/"
    },
    "X-Plasma-API": "declarativeappletscript",
    "X-Plasma-DropMimeTypes": [
        "text/plain",
        "text/richtext"
    ],
    "X-Plasma-MainScript": "ui/main.qml",
    "X-Plasma-StandAloneApp": true
}
